module codeberg.org/anupamsr/markdown_wiki

go 1.19

require (
	github.com/go-kivik/couchdb/v3 v3.3.0
	github.com/go-kivik/kivik/v3 v3.2.3
	github.com/labstack/echo/v4 v4.9.1
	github.com/noirbizarre/gonja v0.0.0-20200629003239-4d051fd0be61
	github.com/pborman/getopt/v2 v2.1.0
	gopkg.in/ini.v1 v1.67.0
)

require (
	github.com/golang-jwt/jwt v3.2.2+incompatible // indirect
	github.com/goph/emperror v0.17.1 // indirect
	github.com/konsorten/go-windows-terminal-sequences v1.0.1 // indirect
	github.com/labstack/gommon v0.4.0 // indirect
	github.com/mattn/go-colorable v0.1.11 // indirect
	github.com/mattn/go-isatty v0.0.14 // indirect
	github.com/pkg/errors v0.9.1 // indirect
	github.com/sirupsen/logrus v1.3.0 // indirect
	github.com/valyala/bytebufferpool v1.0.0 // indirect
	github.com/valyala/fasttemplate v1.2.1 // indirect
	golang.org/x/crypto v0.0.0-20210817164053-32db794688a5 // indirect
	golang.org/x/net v0.0.0-20211015210444-4f30a5c0130f // indirect
	golang.org/x/sys v0.0.0-20211103235746-7861aae1554b // indirect
	golang.org/x/term v0.0.0-20201126162022-7de9c90e9dd1 // indirect
	golang.org/x/text v0.3.7 // indirect
	golang.org/x/time v0.0.0-20201208040808-7e3f01d25324 // indirect
	golang.org/x/xerrors v0.0.0-20200804184101-5ec99f83aff1 // indirect
)
